…
```r
ggplot(data = diamonds) +
  geom_histogram(mapping = aes(x = carat), binwidth = 0.5)
```

<img src="EDA_files/figure-html/unnamed-chunk-3-1.png" width="70%" style="display: block; margin: auto;" />

Puoi calcolarlo a mano combinando `dplyr::count()` e `ggplot2::cut_width()`:


```r
diamonds %>% 
  count(cut_width(carat, 0.5))
#> # A tibble: 11 × 2
#>   `cut_width(carat, 0.5)`     n
#>   <fct>                   <int>
#> 1 [-0.25,0.25]              785
#> 2 (0.25,0.75]             29498
#> 3 (0.75,1.25]             15977
#> 4 (1.25,1.75]              5313
#> 5 (1.75,2.25]              2002
#> 6 (2.25,2.75]               322
#> # … with 5 more rows
```
…
<img src="EDA_files/figure-html/unnamed-chunk-27-1.png" width="70%" style="display: block; margin: auto;" />

La dimensione di ogni cerchio nel grafico mostra quante osservazioni si sono verificate per ogni combinazione di valori. La covariazione apparirà come una forte correlazione tra specifici valori x e specifici valori y.

Un altro approccio è quello di calcolare il conteggio con dplyr:


```r
diamonds %>% 
  count(color, cut)
#> # A tibble: 35 × 3
#>   color cut           n
#>   <ord> <ord>     <int>
#> 1 D     Fair        163
#> 2 D     Good        662
#> 3 D     Very Good  1513
#> 4 D     Premium    1603
#> 5 D     Ideal      2834
#> 6 E     Fair        224
#> # … with 29 more rows
```
…
