15 Fattori | R for Data Science - edizione italiana
…
Se hai bisogno di accedere direttamente all’insieme dei livelli validi, puoi farlo con levels():

levels(f2)
#> [1] "Dec" "Apr" "Jan" "Mar"

15.3 Indagine sociale generale

Per il resto di questo capitolo, ci concentreremo su forcats::gss_cat. Si tratta di un campione di dati dal General Social Survey, che è un sondaggio di lunga data negli Stati Uniti condotto dall’organizzazione di ricerca indipendente NORC dell’Università di Chicago. Il sondaggio ha migliaia di domande, quindi in gss_cat ne ho selezionate alcune che illustrano alcune sfide comuni che incontrerete quando lavorate con i fattori.

gss_cat
#> # A tibble: 21,483 × 9
#>    year marital         age race  rincome        partyid     relig denom tvhours
#>   <int> <fct>         <int> <fct> <fct>          <fct>       <fct> <fct>   <int>
#> 1  2000 Never married    26 White $8000 to 9999  Ind,near r… Prot… Sout…      12
#> 2  2000 Divorced         48 White $8000 to 9999  Not str re… Prot… Bapt…      NA
#> 3  2000 Widowed          67 White Not applicable Independent Prot… No d…       2
#> 4  2000 Never married    39 White Not applicable Ind,near r… Orth… Not …       4
#> 5  2000 Divorced         25 White Not applicable Not str de… None  Not …       1
#> 6  2000 Married          25 White $20000 - 24999 Strong dem… Prot… Sout…      NA
#> # … with 21,477 more rows
…
Ci sono alcuni numeri sospettosamente alti in tvhours. La media è un buon
riassunto?

Per ogni fattore in gss_cat identifica se l’ordine dei livelli è
arbitrario o di principio.

Perché lo spostamento di “Non applicabile” all’inizio dei livelli lo ha spostato in
in fondo al grafico?

15.5 Modificare i livelli dei fattori

Più potente che cambiare l’ordine dei livelli è cambiare i loro valori. Questo ti permette di chiarire le etichette per la pubblicazione e di far collassare i livelli per visualizzazioni di alto livello. Lo strumento più generale e potente è fct_recode(). Ti permette di ricodificare, o cambiare, il valore di ogni livello. Per esempio, prendete il gss_cat$partyid:

gss_cat %>% count(partyid)
#> # A tibble: 10 × 2
#>   partyid                n
#>   <fct>              <int>
#> 1 No answer            154
#> 2 Don't know             1
#> 3 Other party          393
#> 4 Strong republican   2314
#> 5 Not str republican  3032
#> 6 Ind,near rep        1791
#> # … with 4 more rows

I livelli sono concisi e incoerenti. Modifichiamoli per essere più lunghi e usare una costruzione parallela.

gss_cat %>%
  mutate(partyid = fct_recode(partyid,
    "Republican, strong"    = "Strong republican",
    "Republican, weak"      = "Not str republican",
    "Independent, near rep" = "Ind,near rep",
    "Independent, near dem" = "Ind,near dem",
    "Democrat, weak"        = "Not str democrat",
    "Democrat, strong"      = "Strong democrat"
  )) %>%
  count(partyid)
#> # A tibble: 10 × 2
#>   partyid                   n
#>   <fct>                 <int>
#> 1 No answer               154
#> 2 Don't know                1
#> 3 Other party             393
#> 4 Republican, strong     2314
#> 5 Republican, weak       3032
#> 6 Independent, near rep  1791
#> # … with 4 more rows
…
gss_cat %>%
  mutate(partyid = fct_recode(partyid,
    "Republican, strong"    = "Strong republican",
    "Republican, weak"      = "Not str republican",
    "Independent, near rep" = "Ind,near rep",
    "Independent, near dem" = "Ind,near dem",
    "Democrat, weak"        = "Not str democrat",
    "Democrat, strong"      = "Strong democrat",
    "Other"                 = "No answer",
    "Other"                 = "Don't know",
    "Other"                 = "Other party"
  )) %>%
  count(partyid)
#> # A tibble: 8 × 2
#>   partyid                   n
#>   <fct>                 <int>
#> 1 Other                   548
#> 2 Republican, strong     2314
#> 3 Republican, weak       3032
#> 4 Independent, near rep  1791
#> 5 Independent            4119
#> 6 Independent, near dem  2499
#> # … with 2 more rows
…
