…
* Nell'esempio precedente, siamo stati solo sfortunati: se guardiamo solo una riga in più rispetto a quella di default, possiamo analizzare correttamente in un colpo solo:
   
    
    ```r
    challenge2 <- read_csv(readr_example("challenge.csv"), guess_max = 1001)
    #> Rows: 2000 Columns: 2
    #> ── Column specification ────────────────────────────────────────────────────────
    #> Delimiter: ","
    #> dbl  (1): x
    #> date (1): y
    #> 
    #> ℹ Use `spec()` to retrieve the full column specification for this data.
    #> ℹ Specify the column types or set `show_col_types = FALSE` to quiet this message.
    challenge2
    #> # A tibble: 2,000 × 2
    #>       x y     
    #>   <dbl> <date>
    #> 1   404 NA    
    #> 2  4172 NA    
    #> 3  3004 NA    
    #> 4   787 NA    
    #> 5    37 NA    
    #> 6  2332 NA    
    #> # … with 1,994 more rows
    ```
…
Se vuoi esportare un file csv in Excel, usa `write_excel_csv()` --- questo scrive un carattere speciale (un "byte order mark") all'inizio del file che dice a Excel che stai usando la codifica UTF-8.

Gli argomenti più importanti sono `x` (il frame di dati da salvare) e `path` (la posizione in cui salvarlo). Puoi anche specificare come vengono scritti i valori mancanti con `na`, e se vuoi `applicare` ad un file esistente.


```r
write_csv(challenge, "challenge.csv")
```

Si noti che le informazioni sul tipo vengono perse quando si salva in csv:


```r
challenge
#> # A tibble: 2,000 × 2
#>       x y     
#>   <dbl> <date>
#> 1   404 NA    
#> 2  4172 NA    
#> 3  3004 NA    
#> 4   787 NA    
#> 5    37 NA    
#> 6  2332 NA    
#> # … with 1,994 more rows
write_csv(challenge, "challenge-2.csv")
read_csv("challenge-2.csv")
#> Rows: 2000 Columns: 2
#> ── Column specification ────────────────────────────────────────────────────────
#> Delimiter: ","
#> dbl  (1): x
#> date (1): y
#> 
#> ℹ Use `spec()` to retrieve the full column specification for this data.
#> ℹ Specify the column types or set `show_col_types = FALSE` to quiet this message.
#> # A tibble: 2,000 × 2
#>       x y     
#>   <dbl> <date>
#> 1   404 NA    
#> 2  4172 NA    
#> 3  3004 NA    
#> 4   787 NA    
#> 5    37 NA    
#> 6  2332 NA    
#> # … with 1,994 more rows
```

Questo rende i CSV un po' inaffidabili per la memorizzazione dei risultati intermedi - è necessario ricreare la specifica della colonna ogni volta che si carica. Ci sono due alternative:

1.  1. `write_rds()` e `read_rds()` sono wrapper uniformi intorno alle funzioni di base 
    funzioni di base `readRDS()` e `saveRDS()`. Queste memorizzano i dati nel formato binario personalizzato di R 
    formato binario personalizzato di R chiamato RDS:
    
    
    ```r
    write_rds(challenge, "challenge.rds")
    read_rds("challenge.rds")
    #> # A tibble: 2,000 × 2
    #>       x y     
    #>   <dbl> <date>
    #> 1   404 NA    
    #> 2  4172 NA    
    #> 3  3004 NA    
    #> 4   787 NA    
    #> 5    37 NA    
    #> 6  2332 NA    
    #> # … with 1,994 more rows
    ```
  
1.  Il pacchetto `feather` implementa un formato di file binario veloce che può essere condiviso attraverso i linguaggi di programmazione:
    
    
    ```r
    library(feather)
    write_feather(challenge, "challenge.feather")
    read_feather("challenge.feather")
    #> # A tibble: 2,000 x 2
    #>       x      y
    #>   <dbl> <date>
    #> 1   404   <NA>
    #> 2  4172   <NA>
    #> 3  3004   <NA>
    #> 4   787   <NA>
    #> 5    37   <NA>
    #> 6  2332   <NA>
    #> # ... with 1,994 more rows
    ```
…
