23 Modelli base | R for Data Science - edizione italiana
…
Ora possiamo usare purrr per calcolare la distanza per tutti i modelli definiti sopra. Abbiamo bisogno di una funzione di aiuto perché la nostra funzione di distanza si aspetta il modello come un vettore numerico di lunghezza 2.

sim1_dist <- function(a1, a2) {
  measure_distance(c(a1, a2), sim1)
}

models <- models %>% 
  mutate(dist = purrr::map2_dbl(a1, a2, sim1_dist))
models
#> # A tibble: 250 × 3
#>       a1      a2  dist
#>    <dbl>   <dbl> <dbl>
#> 1 -15.2   0.0889  30.8
#> 2  30.1  -0.827   13.2
#> 3  16.0   2.27    13.2
#> 4 -10.6   1.38    18.7
#> 5 -19.6  -1.04    41.8
#> 6   7.98  4.59    19.3
#> # … with 244 more rows
…
23.3 Visualizzare i modelli

Per modelli semplici, come quello di cui sopra, è possibile capire quale modello cattura studiando attentamente la famiglia del modello e i coefficienti montati. E se si segue un corso di statistica sulla modellizzazione, è probabile che si passi molto tempo a fare proprio questo. Qui, tuttavia, prenderemo una strada diversa. Ci concentreremo sulla comprensione di un modello guardando le sue previsioni. Questo ha un grande vantaggio: ogni tipo di modello predittivo fa delle previsioni (altrimenti a cosa servirebbe?) quindi possiamo usare lo stesso set di tecniche per capire qualsiasi tipo di modello predittivo.

È anche utile vedere ciò che il modello non cattura, i cosiddetti residui che rimangono dopo aver sottratto le previsioni dai dati. I residui sono potenti perché ci permettono di usare i modelli per rimuovere i modelli eclatanti in modo da poter studiare le tendenze più sottili che rimangono.

23.3.1 Previsioni

Per visualizzare le previsioni di un modello, iniziamo generando una griglia di valori uniformemente distanziati che copra la regione in cui si trovano i nostri dati. Il modo più semplice per farlo è usare modelr::data_grid(). Il suo primo argomento è un frame di dati, e per ogni argomento successivo trova le variabili uniche e poi genera tutte le combinazioni:

grid <- sim1 %>% 
  data_grid(x) 
grid
#> # A tibble: 10 × 1
#>       x
#>   <int>
#> 1     1
#> 2     2
#> 3     3
#> 4     4
#> 5     5
#> 6     6
#> # … with 4 more rows

(Questo diventerà più interessante quando inizieremo ad aggiungere più variabili al nostro modello).

Poi aggiungiamo le predizioni. Useremo modelr::add_predictions() che prende un data frame e un modello. Aggiunge le predizioni dal modello ad una nuova colonna nel data frame:

grid <- grid %>% 
  add_predictions(sim1_mod) 
grid
#> # A tibble: 10 × 2
#>       x  pred
#>   <int> <dbl>
#> 1     1  6.27
#> 2     2  8.32
#> 3     3 10.4 
#> 4     4 12.4 
#> 5     5 14.5 
#> 6     6 16.5 
#> # … with 4 more rows
…
23.3.2 Residui

Il rovescio della medaglia delle previsioni sono i residui. Le previsioni ti dicono il modello che il modello ha catturato, e i residui ti dicono cosa il modello ha mancato. I residui sono solo le distanze tra i valori osservati e quelli previsti che abbiamo calcolato sopra.

Aggiungiamo i residui ai dati con add_residuals(), che funziona come add_predictions(). Si noti, tuttavia, che usiamo il dataset originale, non una griglia costruita. Questo perché per calcolare i residui abbiamo bisogno dei valori reali di y.

sim1 <- sim1 %>% 
  add_residuals(sim1_mod)
sim1
#> # A tibble: 30 × 3
#>       x     y  resid
#>   <int> <dbl>  <dbl>
#> 1     1  4.20 -2.07 
#> 2     1  7.51  1.24 
#> 3     1  2.13 -4.15 
#> 4     2  8.99  0.665
#> 5     2 10.2   1.92 
#> 6     2 11.3   2.97 
#> # … with 24 more rows
…
Per generare previsioni da entrambi i modelli simultaneamente, possiamo usare
gather_predictions() che aggiunge ogni previsione come una riga. Il
complemento di gather_predictions() è spread_predictions() che aggiunge
ogni previsione in una nuova colonna.

Insieme questo ci dà:

grid <- sim3 %>% 
  data_grid(x1, x2) %>% 
  gather_predictions(mod1, mod2)
grid
#> # A tibble: 80 × 4
#>   model    x1 x2     pred
#>   <chr> <int> <fct> <dbl>
#> 1 mod1      1 a      1.67
#> 2 mod1      1 b      4.56
#> 3 mod1      1 c      6.48
#> 4 mod1      1 d      4.03
#> 5 mod1      2 a      1.48
#> 6 mod1      2 b      4.37
#> # … with 74 more rows
…
23.4.3 Interazioni (due continue)

Diamo un’occhiata al modello equivalente per due variabili continue. Inizialmente le cose procedono in modo quasi identico all’esempio precedente:

mod1 <- lm(y ~ x1 + x2, data = sim4)
mod2 <- lm(y ~ x1 * x2, data = sim4)

grid <- sim4 %>% 
  data_grid(
    x1 = seq_range(x1, 5), 
    x2 = seq_range(x2, 5) 
  ) %>% 
  gather_predictions(mod1, mod2)
grid
#> # A tibble: 50 × 4
#>   model    x1    x2   pred
#>   <chr> <dbl> <dbl>  <dbl>
#> 1 mod1   -1    -1    0.996
#> 2 mod1   -1    -0.5 -0.395
#> 3 mod1   -1     0   -1.79 
#> 4 mod1   -1     0.5 -3.18 
#> 5 mod1   -1     1   -4.57 
#> 6 mod1   -0.5  -1    1.91 
#> # … with 44 more rows
…
