…
<img src="model-building_files/figure-html/unnamed-chunk-11-1.png" width="70%" style="display: block; margin: auto;" />

Questo grafico indica che ci sono alcuni diamanti con residui abbastanza grandi - ricorda che un residuo di 2 indica che il diamante è 4 volte il prezzo che ci aspettavamo. Spesso è utile guardare i valori insoliti singolarmente:


```r
diamonds2 %>% 
  filter(abs(lresid2) > 1) %>% 
  add_predictions(mod_diamond2) %>% 
  mutate(pred = round(2 ^ pred)) %>% 
  select(price, pred, carat:table, x:z) %>% 
  arrange(price)
#> # A tibble: 16 × 11
#>   price  pred carat cut     color clarity depth table     x     y     z
#>   <int> <dbl> <dbl> <ord>   <ord> <ord>   <dbl> <dbl> <dbl> <dbl> <dbl>
#> 1  1013   264  0.25 Fair    F     SI2      54.4    64  4.3   4.23  2.32
#> 2  1186   284  0.25 Premium G     SI2      59      60  5.33  5.28  3.12
#> 3  1186   284  0.25 Premium G     SI2      58.8    60  5.33  5.28  3.12
#> 4  1262  2644  1.03 Fair    E     I1       78.2    54  5.72  5.59  4.42
#> 5  1415   639  0.35 Fair    G     VS2      65.9    54  5.57  5.53  3.66
#> 6  1415   639  0.35 Fair    G     VS2      65.9    54  5.57  5.53  3.66
#> # … with 10 more rows
```
…
1.  Il modello finale, `mod_diamond2`, fa un buon lavoro di previsione dei prezzi dei diamanti? Vi fidereste di esso per dirvi quanto spendere se doveste comprare un diamante?

## Cosa influenza il numero di voli giornalieri?

Lavoriamo attraverso un processo simile per un set di dati che sembra ancora più semplice a prima vista: il numero di voli che lasciano NYC al giorno. Questo è un dataset davvero piccolo --- solo 365 righe e 2 colonne --- e non finiremo con un modello completamente realizzato, ma come vedrete, i passi lungo il percorso ci aiuteranno a capire meglio i dati. Iniziamo contando il numero di voli al giorno e visualizzandolo con ggplot2.


```r
daily <- flights %>% 
  mutate(date = make_date(year, month, day)) %>% 
  group_by(date) %>% 
  summarise(n = n())
daily
#> # A tibble: 365 × 2
#>   date           n
#>   <date>     <int>
#> 1 2013-01-01   842
#> 2 2013-01-02   943
#> 3 2013-01-03   914
#> 4 2013-01-04   915
#> 5 2013-01-05   720
#> 6 2013-01-06   832
#> # … with 359 more rows
…
    <img src="model-building_files/figure-html/unnamed-chunk-17-1.png" width="70%" style="display: block; margin: auto;" />
   
    Il nostro modello non riesce a prevedere accuratamente il numero di voli del sabato: durante l'estate ci sono più voli di quanto ci aspettiamo, e durante l'autunno ce ne sono meno. Vedremo come possiamo fare meglio per catturare questo modello nella prossima sezione.

1.  Ci sono alcuni giorni con molti meno voli del previsto:

    
    ```r
    daily %>% 
      filter(resid < -100)
    #> # A tibble: 11 × 4
    #>   date           n wday  resid
    #>   <date>     <int> <ord> <dbl>
    #> 1 2013-01-01   842 Tue   -109.
    #> 2 2013-01-20   786 Sun   -105.
    #> 3 2013-05-26   729 Sun   -162.
    #> 4 2013-07-04   737 Thu   -229.
    #> 5 2013-07-05   822 Fri   -145.
    #> 6 2013-09-01   718 Sun   -173.
    #> # … with 5 more rows
    ```
…
