25 Molti modelli | R for Data Science - edizione italiana
…
Lavorare con molti modelli richiede molti dei pacchetti del tidyverse (per l’esplorazione dei dati, il wrangling e la programmazione) e modelr per facilitare la modellazione.

library(modelr)
library(tidyverse)

25.2 gapminder

Per motivare la potenza di molti modelli semplici, esamineremo i dati “gapminder”. Questi dati sono stati resi popolari da Hans Rosling, un medico e statistico svedese. Se non avete mai sentito parlare di lui, smettete subito di leggere questo capitolo e andate a guardare uno dei suoi video! È un fantastico presentatore di dati e illustra come è possibile utilizzare i dati per presentare una storia convincente. Un buon punto di partenza è questo breve video girato insieme alla BBC: https://www.youtube.com/watch?v=jbkSRLYSojo.

I dati di gapminder riassumono la progressione dei paesi nel tempo, guardando statistiche come l’aspettativa di vita e il PIL. I dati sono facilmente accessibili in R, grazie a Jenny Bryan che ha creato il pacchetto gapminder:

library(gapminder)
gapminder
#> # A tibble: 1,704 × 6
#>   country     continent  year lifeExp      pop gdpPercap
#>   <fct>       <fct>     <int>   <dbl>    <int>     <dbl>
#> 1 Afghanistan Asia       1952    28.8  8425333      779.
#> 2 Afghanistan Asia       1957    30.3  9240934      821.
#> 3 Afghanistan Asia       1962    32.0 10267083      853.
#> 4 Afghanistan Asia       1967    34.0 11537966      836.
#> 5 Afghanistan Asia       1972    36.1 13079460      740.
#> 6 Afghanistan Asia       1977    38.4 14880372      786.
#> # … with 1,698 more rows
…
Come possiamo facilmente adattare questo modello ad ogni paese?

25.2.1 Dati annidati

Potresti immaginare di copiare e incollare quel codice più volte; ma hai già imparato un modo migliore! Estrai il codice comune con una funzione e ripeti usando una funzione di mappa da purrr. Questo problema è strutturato un po’ diversamente da quello che hai visto prima. Invece di ripetere un’azione per ogni variabile, vogliamo ripetere un’azione per ogni paese, un sottoinsieme di righe. Per farlo, abbiamo bisogno di una nuova struttura di dati: il data frame annidato (nested data frame). Per creare un data frame annidato, iniziamo con un data frame raggruppato e lo annidiamo:

by_country <- gapminder %>% 
  group_by(country, continent) %>% 
  nest()

by_country
#> # A tibble: 142 × 3
#> # Groups:   country, continent [142]
#>   country     continent data             
#>   <fct>       <fct>     <list>           
#> 1 Afghanistan Asia      <tibble [12 × 4]>
#> 2 Albania     Europe    <tibble [12 × 4]>
#> 3 Algeria     Africa    <tibble [12 × 4]>
#> 4 Angola      Africa    <tibble [12 × 4]>
#> 5 Argentina   Americas  <tibble [12 × 4]>
#> 6 Australia   Oceania   <tibble [12 × 4]>
#> # … with 136 more rows

(Sto imbrogliando un po’ raggruppando sia il continent che il country. Dato il country, il continente è fisso, quindi questo non aggiunge altri gruppi, ma è un modo semplice per portare con sé una variabile extra).

Questo crea un frame di dati che ha una riga per gruppo (per paese) e una colonna piuttosto insolita: data. data è una lista di data frame (o tibbie, per essere precisi). Sembra un’idea folle: abbiamo un data frame con una colonna che è una lista di altri data frame! Spiegherò brevemente perché penso che sia una buona idea.

La colonna data è un po’ difficile da guardare perché è una lista moderatamente complicata, e stiamo ancora lavorando su buoni strumenti per esplorare questi oggetti. Sfortunatamente l’uso di str() non è raccomandato perché spesso produce un output molto lungo. Ma se si estrae un singolo elemento dalla colonna data si vedrà che contiene tutti i dati per quel paese (in questo caso, Afghanistan).

by_country$data[[1]]
#> # A tibble: 12 × 4
#>    year lifeExp      pop gdpPercap
#>   <int>   <dbl>    <int>     <dbl>
#> 1  1952    28.8  8425333      779.
#> 2  1957    30.3  9240934      821.
#> 3  1962    32.0 10267083      853.
#> 4  1967    34.0 11537966      836.
#> 5  1972    36.1 13079460      740.
#> 6  1977    38.4 14880372      786.
#> # … with 6 more rows
…
E vogliamo applicarlo ad ogni frame di dati. I frame di dati sono in una lista, quindi possiamo usare purrr::map() per applicare country_model ad ogni elemento:

models <- map(by_country$data, country_model)

Tuttavia, piuttosto che lasciare l’elenco dei modelli come un oggetto fluttuante, penso che sia meglio memorizzarlo come una colonna nel frame di dati by_country. Memorizzare oggetti correlati in colonne è una parte fondamentale del valore dei data frame, e il motivo per cui penso che le colonne-elenco siano una buona idea. Nel corso del lavoro con questi paesi, avremo molte liste dove abbiamo un elemento per paese. Quindi perché non memorizzarli tutti insieme in un unico frame di dati?

In altre parole, invece di creare un nuovo oggetto nell’ambiente globale, creeremo una nuova variabile nel data frame by_country. Questo è un lavoro per dplyr::mutate():

by_country <- by_country %>% 
  mutate(model = map(data, country_model))
by_country
#> # A tibble: 142 × 4
#> # Groups:   country, continent [142]
#>   country     continent data              model 
#>   <fct>       <fct>     <list>            <list>
#> 1 Afghanistan Asia      <tibble [12 × 4]> <lm>  
#> 2 Albania     Europe    <tibble [12 × 4]> <lm>  
#> 3 Algeria     Africa    <tibble [12 × 4]> <lm>  
#> 4 Angola      Africa    <tibble [12 × 4]> <lm>  
#> 5 Argentina   Americas  <tibble [12 × 4]> <lm>  
#> 6 Australia   Oceania   <tibble [12 × 4]> <lm>  
#> # … with 136 more rows

Questo ha un grande vantaggio: poiché tutti gli oggetti correlati sono memorizzati insieme, non è necessario mantenerli manualmente sincronizzati quando si filtra o si organizza. La semantica del data frame se ne occupa per voi:

by_country %>% 
  filter(continent == "Europe")
#> # A tibble: 30 × 4
#> # Groups:   country, continent [30]
#>   country                continent data              model 
#>   <fct>                  <fct>     <list>            <list>
#> 1 Albania                Europe    <tibble [12 × 4]> <lm>  
#> 2 Austria                Europe    <tibble [12 × 4]> <lm>  
#> 3 Belgium                Europe    <tibble [12 × 4]> <lm>  
#> 4 Bosnia and Herzegovina Europe    <tibble [12 × 4]> <lm>  
#> 5 Bulgaria               Europe    <tibble [12 × 4]> <lm>  
#> 6 Croatia                Europe    <tibble [12 × 4]> <lm>  
#> # … with 24 more rows
by_country %>% 
  arrange(continent, country)
#> # A tibble: 142 × 4
#> # Groups:   country, continent [142]
#>   country      continent data              model 
#>   <fct>        <fct>     <list>            <list>
#> 1 Algeria      Africa    <tibble [12 × 4]> <lm>  
#> 2 Angola       Africa    <tibble [12 × 4]> <lm>  
#> 3 Benin        Africa    <tibble [12 × 4]> <lm>  
#> 4 Botswana     Africa    <tibble [12 × 4]> <lm>  
#> 5 Burkina Faso Africa    <tibble [12 × 4]> <lm>  
#> 6 Burundi      Africa    <tibble [12 × 4]> <lm>  
#> # … with 136 more rows

Se la vostra lista di data frame e la lista di modelli fossero oggetti separati, dovete ricordarvi che ogni volta che riordinate o sotto-ordinate un vettore, dovete ri-ordinare o sotto-ordinare tutti gli altri per tenerli sincronizzati. Se lo dimenticate, il vostro codice continuerà a funzionare, ma darà la risposta sbagliata!

25.2.3 Disannidare (unnesting)

In precedenza abbiamo calcolato i residui di un singolo modello con un singolo set di dati. Ora abbiamo 142 frame di dati e 142 modelli. Per calcolare i residui, dobbiamo chiamare add_residuals() con ogni coppia modello-dati:

by_country <- by_country %>% 
  mutate(
    resids = map2(data, model, add_residuals)
  )
by_country
#> # A tibble: 142 × 5
#> # Groups:   country, continent [142]
#>   country     continent data              model  resids           
#>   <fct>       <fct>     <list>            <list> <list>           
#> 1 Afghanistan Asia      <tibble [12 × 4]> <lm>   <tibble [12 × 5]>
#> 2 Albania     Europe    <tibble [12 × 4]> <lm>   <tibble [12 × 5]>
#> 3 Algeria     Africa    <tibble [12 × 4]> <lm>   <tibble [12 × 5]>
#> 4 Angola      Africa    <tibble [12 × 4]> <lm>   <tibble [12 × 5]>
#> 5 Argentina   Americas  <tibble [12 × 4]> <lm>   <tibble [12 × 5]>
#> 6 Australia   Oceania   <tibble [12 × 4]> <lm>   <tibble [12 × 5]>
#> # … with 136 more rows

Ma come si può tracciare una lista di frame di dati? Invece di lottare per rispondere a questa domanda, trasformiamo di nuovo la lista di data frame in un normale data frame. In precedenza abbiamo usato nest() per trasformare un data frame regolare in un data frame annidato, e ora facciamo il contrario con unnest():

resids <- unnest(by_country, resids)
resids
#> # A tibble: 1,704 × 9
#> # Groups:   country, continent [142]
#>   country     continent data     model   year lifeExp      pop gdpPercap   resid
#>   <fct>       <fct>     <list>   <list> <int>   <dbl>    <int>     <dbl>   <dbl>
#> 1 Afghanistan Asia      <tibble> <lm>    1952    28.8  8425333      779. -1.11  
#> 2 Afghanistan Asia      <tibble> <lm>    1957    30.3  9240934      821. -0.952 
#> 3 Afghanistan Asia      <tibble> <lm>    1962    32.0 10267083      853. -0.664 
#> 4 Afghanistan Asia      <tibble> <lm>    1967    34.0 11537966      836. -0.0172
#> 5 Afghanistan Asia      <tibble> <lm>    1972    36.1 13079460      740.  0.674 
#> 6 Afghanistan Asia      <tibble> <lm>    1977    38.4 14880372      786.  1.65  
#> # … with 1,698 more rows
…
Invece di guardare i residui del modello, potremmo guardare alcune misure generali della qualità del modello. Avete imparato come calcolare alcune misure specifiche nel capitolo precedente. Qui mostreremo un approccio diverso usando il pacchetto broom. Il pacchetto broom fornisce un insieme generale di funzioni per trasformare i modelli in dati ordinati. Qui useremo broom::glance() per estrarre alcune metriche di qualità del modello. Se lo applichiamo a un modello, otteniamo un frame di dati con una sola riga:

broom::glance(nz_mod)
#> # A tibble: 1 × 12
#>   r.squared adj.r.squared sigma statistic      p.value    df logLik   AIC   BIC
#>       <dbl>         <dbl> <dbl>     <dbl>        <dbl> <dbl>  <dbl> <dbl> <dbl>
#> 1     0.954         0.949 0.804      205. 0.0000000541     1  -13.3  32.6  34.1
#> # … with 3 more variables: deviance <dbl>, df.residual <int>, nobs <int>

Possiamo usare mutate() e unnest() per creare un frame di dati con una riga per ogni paese:

by_country %>% 
  mutate(glance = map(model, broom::glance)) %>% 
  unnest(glance)
#> # A tibble: 142 × 17
#> # Groups:   country, continent [142]
#>   country     continent data     model  resids   r.squared adj.r.squared sigma
#>   <fct>       <fct>     <list>   <list> <list>       <dbl>         <dbl> <dbl>
#> 1 Afghanistan Asia      <tibble> <lm>   <tibble>     0.948         0.942 1.22 
#> 2 Albania     Europe    <tibble> <lm>   <tibble>     0.911         0.902 1.98 
#> 3 Algeria     Africa    <tibble> <lm>   <tibble>     0.985         0.984 1.32 
#> 4 Angola      Africa    <tibble> <lm>   <tibble>     0.888         0.877 1.41 
#> 5 Argentina   Americas  <tibble> <lm>   <tibble>     0.996         0.995 0.292
#> 6 Australia   Oceania   <tibble> <lm>   <tibble>     0.980         0.978 0.621
#> # … with 136 more rows, and 9 more variables: statistic <dbl>, p.value <dbl>,
#> #   df <dbl>, logLik <dbl>, AIC <dbl>, BIC <dbl>, deviance <dbl>,
#> #   df.residual <int>, nobs <int>

Questo non è esattamente l’output che vogliamo, perché include ancora tutte le colonne della lista. Questo è il comportamento predefinito quando unnest() lavora su frame di dati a riga singola. Per sopprimere queste colonne usiamo .drop = TRUE:

glance <- by_country %>% 
  mutate(glance = map(model, broom::glance)) %>% 
  unnest(glance, .drop = TRUE)
#> Warning: The `.drop` argument of `unnest()` is deprecated as of tidyr 1.0.0.
#> All list-columns are now preserved.
#> This warning is displayed once every 8 hours.
#> Call `lifecycle::last_lifecycle_warnings()` to see where this warning was generated.
glance
#> # A tibble: 142 × 17
#> # Groups:   country, continent [142]
#>   country     continent data     model  resids   r.squared adj.r.squared sigma
#>   <fct>       <fct>     <list>   <list> <list>       <dbl>         <dbl> <dbl>
#> 1 Afghanistan Asia      <tibble> <lm>   <tibble>     0.948         0.942 1.22 
#> 2 Albania     Europe    <tibble> <lm>   <tibble>     0.911         0.902 1.98 
#> 3 Algeria     Africa    <tibble> <lm>   <tibble>     0.985         0.984 1.32 
#> 4 Angola      Africa    <tibble> <lm>   <tibble>     0.888         0.877 1.41 
#> 5 Argentina   Americas  <tibble> <lm>   <tibble>     0.996         0.995 0.292
#> 6 Australia   Oceania   <tibble> <lm>   <tibble>     0.980         0.978 0.621
#> # … with 136 more rows, and 9 more variables: statistic <dbl>, p.value <dbl>,
#> #   df <dbl>, logLik <dbl>, AIC <dbl>, BIC <dbl>, deviance <dbl>,
#> #   df.residual <int>, nobs <int>

(Fate attenzione alle variabili che non sono stampate: c’è un sacco di roba utile lì).

Con questo quadro di dati in mano, possiamo iniziare a cercare i modelli che non si adattano bene:

glance %>% 
  arrange(r.squared)
#> # A tibble: 142 × 17
#> # Groups:   country, continent [142]
#>   country   continent data     model  resids   r.squared adj.r.squared sigma
#>   <fct>     <fct>     <list>   <list> <list>       <dbl>         <dbl> <dbl>
#> 1 Rwanda    Africa    <tibble> <lm>   <tibble>    0.0172      -0.0811   6.56
#> 2 Botswana  Africa    <tibble> <lm>   <tibble>    0.0340      -0.0626   6.11
#> 3 Zimbabwe  Africa    <tibble> <lm>   <tibble>    0.0562      -0.0381   7.21
#> 4 Zambia    Africa    <tibble> <lm>   <tibble>    0.0598      -0.0342   4.53
#> 5 Swaziland Africa    <tibble> <lm>   <tibble>    0.0682      -0.0250   6.64
#> 6 Lesotho   Africa    <tibble> <lm>   <tibble>    0.0849      -0.00666  5.93
#> # … with 136 more rows, and 9 more variables: statistic <dbl>, p.value <dbl>,
#> #   df <dbl>, logLik <dbl>, AIC <dbl>, BIC <dbl>, deviance <dbl>,
#> #   df.residual <int>, nobs <int>
…
In alternativa, potreste crearli da una lista nominata, usando tibble::enframe().

Generalmente, quando si creano colonne di liste, ci si dovrebbe assicurare che siano omogenee: ogni elemento dovrebbe contenere lo stesso tipo di cose. Non ci sono controlli per assicurarsi che questo sia vero, ma se usate purrr e ricordate ciò che avete imparato sulle funzioni type-stable, dovreste scoprire che ciò avviene naturalmente.

25.4.1 Con l’annidamento

nest() crea un data frame annidato, che è un data frame con una lista-colonna di data frame. In un data frame annidato ogni riga è una meta-osservazione: le altre colonne danno le variabili che definiscono l’osservazione (come il paese e il continente sopra), e la lista-colonna di data frame dà le singole osservazioni che compongono la meta-osservazione.

Ci sono due modi per usare nest(). Finora avete visto come usarlo con un frame di dati raggruppato. Quando viene applicato ad un frame di dati raggruppati, nest() mantiene le colonne di raggruppamento così come sono, e raggruppa tutto il resto nella lista-colonna:

gapminder %>% 
  group_by(country, continent) %>% 
  nest()
#> # A tibble: 142 × 3
#> # Groups:   country, continent [142]
#>   country     continent data             
#>   <fct>       <fct>     <list>           
#> 1 Afghanistan Asia      <tibble [12 × 4]>
#> 2 Albania     Europe    <tibble [12 × 4]>
#> 3 Algeria     Africa    <tibble [12 × 4]>
#> 4 Angola      Africa    <tibble [12 × 4]>
#> 5 Argentina   Americas  <tibble [12 × 4]>
#> 6 Australia   Oceania   <tibble [12 × 4]>
#> # … with 136 more rows

Potete anche usarlo su un frame di dati non raggruppato, specificando quali colonne volete annidare:

gapminder %>% 
  nest(data = c(year:gdpPercap))
#> # A tibble: 142 × 3
#>   country     continent data             
#>   <fct>       <fct>     <list>           
#> 1 Afghanistan Asia      <tibble [12 × 4]>
#> 2 Albania     Europe    <tibble [12 × 4]>
#> 3 Algeria     Africa    <tibble [12 × 4]>
#> 4 Angola      Africa    <tibble [12 × 4]>
#> 5 Argentina   Americas  <tibble [12 × 4]>
#> 6 Australia   Oceania   <tibble [12 × 4]>
#> # … with 136 more rows
…
df %>% 
  mutate(x2 = stringr::str_split(x1, ","))
#> # A tibble: 2 × 2
#>   x1      x2       
#>   <chr>   <list>   
#> 1 a,b,c   <chr [3]>
#> 2 d,e,f,g <chr [4]>

unnest() sa come gestire queste liste di vettori:

df %>% 
  mutate(x2 = stringr::str_split(x1, ",")) %>% 
  unnest(x2)
#> # A tibble: 7 × 2
#>   x1      x2   
#>   <chr>   <chr>
#> 1 a,b,c   a    
#> 2 a,b,c   b    
#> 3 a,b,c   c    
#> 4 d,e,f,g d    
#> 5 d,e,f,g e    
#> 6 d,e,f,g f    
#> # … with 1 more row
…
Notate che tecnicamente sim non è omogeneo perché contiene sia vettori doppi che interi. Tuttavia, è improbabile che questo causi molti problemi, dato che interi e doppi sono entrambi vettori numerici.

25.4.3 Dai sommari multivalutati

Una restrizione di summarise() è che funziona solo con funzioni di riepilogo che restituiscono un singolo valore. Ciò significa che non potete usarla con funzioni come quantile() che restituiscono un vettore di lunghezza arbitraria:

mtcars %>% 
  group_by(cyl) %>% 
  summarise(q = quantile(mpg))
#> `summarise()` has grouped output by 'cyl'. You can override using the `.groups`
#> argument.
#> # A tibble: 15 × 2
#> # Groups:   cyl [3]
#>     cyl     q
#>   <dbl> <dbl>
#> 1     4  21.4
#> 2     4  22.8
#> 3     4  26  
#> 4     4  30.4
#> 5     4  33.9
#> 6     6  17.8
#> # … with 9 more rows
…
Per ottenere risultati utili con unnest, dovrete anche catturare le probabilità:

probs <- c(0.01, 0.25, 0.5, 0.75, 0.99)
mtcars %>% 
  group_by(cyl) %>% 
  summarise(p = list(probs), q = list(quantile(mpg, probs))) %>% 
  unnest(c(p, q))
#> # A tibble: 15 × 3
#>     cyl     p     q
#>   <dbl> <dbl> <dbl>
#> 1     4  0.01  21.4
#> 2     4  0.25  22.8
#> 3     4  0.5   26  
#> 4     4  0.75  30.4
#> 5     4  0.99  33.8
#> 6     6  0.01  17.8
#> # … with 9 more rows
…
Elenca tutte le funzioni che ti vengono in mente che prendono un vettore atomico e
restituire una lista.

Inventa utili funzioni di riepilogo che, come la quantile(), restituiscono
valori multipli.

Cosa manca nel seguente data frame? Come fa la funzione quantile() a restituire
quel pezzo mancante? Perché non è utile in questo caso?

mtcars %>% 
  group_by(cyl) %>% 
  summarise(q = list(quantile(mpg))) %>% 
  unnest(q)
#> # A tibble: 15 × 2
#>     cyl     q
#>   <dbl> <dbl>
#> 1     4  21.4
#> 2     4  22.8
#> 3     4  26  
#> 4     4  30.4
#> 5     4  33.9
#> 6     6  17.8
#> # … with 9 more rows
…
