27 R Markdown | R for Data Science - edizione italiana
…
In RStudio, è possibile fare clic sull’opzione “Knit with Parameters” nel menu a discesa Knit per impostare i parametri, eseguire il rendering e visualizzare l’anteprima del report in un unico passaggio di facile utilizzo. È possibile personalizzare la finestra di dialogo impostando altre opzioni nell’intestazione. Per ulteriori dettagli, vedere http://rmarkdown.rstudio.com/developer_parameterized_reports.html#parameter_user_interfaces.

In alternativa, se è necessario produrre molti rapporti parametrati, si può chiamare rmarkdown::render() con un elenco di parametri:

rmarkdown::render("fuel-economy.Rmd", params = list(my_class = "suv"))

È particolarmente potente in combinazione con purrr:pwalk(). L’esempio seguente crea un report per ogni valore di classe trovato in mpg. Per prima cosa si crea un frame di dati con una riga per ogni classe, indicando il nome del file del report e i parametri:

reports <- tibble(
  class = unique(mpg$class),
  filename = stringr::str_c("fuel-economy-", class, ".html"),
  params = purrr::map(class, ~ list(my_class = .))
)
reports
#> # A tibble: 7 × 3
#>   class   filename                  params          
#>   <chr>   <chr>                     <list>          
#> 1 compact fuel-economy-compact.html <named list [1]>
#> 2 midsize fuel-economy-midsize.html <named list [1]>
#> 3 suv     fuel-economy-suv.html     <named list [1]>
#> 4 2seater fuel-economy-2seater.html <named list [1]>
#> 5 minivan fuel-economy-minivan.html <named list [1]>
#> 6 pickup  fuel-economy-pickup.html  <named list [1]>
#> # … with 1 more row
…
