…
```r
library(tidyverse)
library(nycflights13)
```

## nycflights13 {#nycflights13-relational}

Useremo il pacchetto nycflights13 per imparare i dati relazionali. nycflights13 contiene quattro tibbie che sono collegate alla tabella `flights` che avete usato in [trasformazione]:

* `airlines` ti permette di cercare il nome completo del vettore dal suo codice abbreviato:

    
    ```r
    airlines
    #> # A tibble: 16 × 2
    #>   carrier name                    
    #>   <chr>   <chr>                   
    #> 1 9E      Endeavor Air Inc.       
    #> 2 AA      American Airlines Inc.  
    #> 3 AS      Alaska Airlines Inc.    
    #> 4 B6      JetBlue Airways         
    #> 5 DL      Delta Air Lines Inc.    
    #> 6 EV      ExpressJet Airlines Inc.
    #> # … with 10 more rows
    ```

* `airports` dà informazioni su ogni aeroporto, identificato dal codice aeroportuale `faa`:

    
    ```r
    airports
    #> # A tibble: 1,458 × 8
    #>   faa   name                             lat   lon   alt    tz dst   tzone      
    #>   <chr> <chr>                          <dbl> <dbl> <dbl> <dbl> <chr> <chr>      
    #> 1 04G   Lansdowne Airport               41.1 -80.6  1044    -5 A     America/Ne…
    #> 2 06A   Moton Field Municipal Airport   32.5 -85.7   264    -6 A     America/Ch…
    #> 3 06C   Schaumburg Regional             42.0 -88.1   801    -6 A     America/Ch…
    #> 4 06N   Randall Airport                 41.4 -74.4   523    -5 A     America/Ne…
    #> 5 09J   Jekyll Island Airport           31.1 -81.4    11    -5 A     America/Ne…
    #> 6 0A9   Elizabethton Municipal Airport  36.4 -82.2  1593    -5 A     America/Ne…
    #> # … with 1,452 more rows
    ```

* `planes` dà informazioni su ogni aereo, identificato dal suo `tailnum`:

    
    ```r
    planes
    #> # A tibble: 3,322 × 9
    #>   tailnum  year type               manufacturer model engines seats speed engine
    #>   <chr>   <int> <chr>              <chr>        <chr>   <int> <int> <int> <chr> 
    #> 1 N10156   2004 Fixed wing multi … EMBRAER      EMB-…       2    55    NA Turbo…
    #> 2 N102UW   1998 Fixed wing multi … AIRBUS INDU… A320…       2   182    NA Turbo…
    #> 3 N103US   1999 Fixed wing multi … AIRBUS INDU… A320…       2   182    NA Turbo…
    #> 4 N104UW   1999 Fixed wing multi … AIRBUS INDU… A320…       2   182    NA Turbo…
    #> 5 N10575   2002 Fixed wing multi … EMBRAER      EMB-…       2    55    NA Turbo…
    #> 6 N105UW   1999 Fixed wing multi … AIRBUS INDU… A320…       2   182    NA Turbo…
    #> # … with 3,316 more rows
    ```

*   `weather` dà il meteo in ogni aeroporto di NYC per ogni ora:

    
    ```r
    weather
    #> # A tibble: 26,115 × 15
    #>   origin  year month   day  hour  temp  dewp humid wind_dir wind_speed wind_gust
    #>   <chr>  <int> <int> <int> <int> <dbl> <dbl> <dbl>    <dbl>      <dbl>     <dbl>
    #> 1 EWR     2013     1     1     1  39.0  26.1  59.4      270      10.4         NA
    #> 2 EWR     2013     1     1     2  39.0  27.0  61.6      250       8.06        NA
    #> 3 EWR     2013     1     1     3  39.0  28.0  64.4      240      11.5         NA
    #> 4 EWR     2013     1     1     4  39.9  28.0  62.2      250      12.7         NA
    #> 5 EWR     2013     1     1     5  39.0  28.0  64.4      260      12.7         NA
    #> 6 EWR     2013     1     1     6  37.9  28.0  67.2      240      11.5         NA
    #> # … with 26,109 more rows, and 4 more variables: precip <dbl>, pressure <dbl>,
    #> #   visib <dbl>, time_hour <dttm>
    ```
…
A volte una tabella non ha una chiave primaria esplicita: ogni riga è un'osservazione, ma nessuna combinazione di variabili la identifica in modo affidabile. Per esempio, qual è la chiave primaria nella tabella `flights`? Si potrebbe pensare che sia la data più il numero di volo o di coda, ma nessuno dei due è unico:


```r
flights %>% 
  count(year, month, day, flight) %>% 
  filter(n > 1)
#> # A tibble: 29,768 × 5
#>    year month   day flight     n
#>   <int> <int> <int>  <int> <int>
#> 1  2013     1     1      1     2
#> 2  2013     1     1      3     2
#> 3  2013     1     1      4     2
#> 4  2013     1     1     11     3
#> 5  2013     1     1     15     2
#> 6  2013     1     1     21     2
#> # … with 29,762 more rows

flights %>% 
  count(year, month, day, tailnum) %>% 
  filter(n > 1)
#> # A tibble: 64,928 × 5
#>    year month   day tailnum     n
#>   <int> <int> <int> <chr>   <int>
#> 1  2013     1     1 N0EGMQ      2
#> 2  2013     1     1 N11189      2
#> 3  2013     1     1 N11536      2
#> 4  2013     1     1 N11544      3
#> 5  2013     1     1 N11551      2
#> 6  2013     1     1 N12540      2
#> # … with 64,922 more rows
```
…
    Come caratterizzeresti la relazione tra le tabelle `Batting`,
    `Pitching` e `Fielding`?

## Mutating joins {#mutating-joins}

Il primo strumento che vedremo per combinare una coppia di tabelle è la __mutating join__. Una mutating join permette di combinare le variabili di due tabelle. Prima abbina le osservazioni in base alle loro chiavi, poi copia le variabili da una tabella all'altra.

Come `mutate()`, le funzioni di join aggiungono le variabili a destra, quindi se avete già molte variabili, le nuove variabili non verranno stampate. Per questi esempi, renderemo più facile vedere cosa succede negli esempi creando un set di dati più ristretto:


```r
flights2 <- flights %>% 
  select(year:day, hour, origin, dest, tailnum, carrier)
flights2
#> # A tibble: 336,776 × 8
#>    year month   day  hour origin dest  tailnum carrier
#>   <int> <int> <int> <dbl> <chr>  <chr> <chr>   <chr>  
#> 1  2013     1     1     5 EWR    IAH   N14228  UA     
#> 2  2013     1     1     5 LGA    IAH   N24211  UA     
#> 3  2013     1     1     5 JFK    MIA   N619AA  AA     
#> 4  2013     1     1     5 JFK    BQN   N804JB  B6     
#> 5  2013     1     1     6 LGA    ATL   N668DN  DL     
#> 6  2013     1     1     5 EWR    ORD   N39463  UA     
#> # … with 336,770 more rows
```

(Ricordate, quando siete in RStudio, potete anche usare `View()` per evitare questo problema).

Immaginate di voler aggiungere il nome completo della compagnia aerea ai dati di `flights2`. Potete combinare i data frame `airlines` e `flights2` con `left_join()`:


```r
flights2 %>%
  select(-origin, -dest) %>% 
  left_join(airlines, by = "carrier")
#> # A tibble: 336,776 × 7
#>    year month   day  hour tailnum carrier name                  
#>   <int> <int> <int> <dbl> <chr>   <chr>   <chr>                 
#> 1  2013     1     1     5 N14228  UA      United Air Lines Inc. 
#> 2  2013     1     1     5 N24211  UA      United Air Lines Inc. 
#> 3  2013     1     1     5 N619AA  AA      American Airlines Inc.
#> 4  2013     1     1     5 N804JB  B6      JetBlue Airways       
#> 5  2013     1     1     6 N668DN  DL      Delta Air Lines Inc.  
#> 6  2013     1     1     5 N39463  UA      United Air Lines Inc. 
#> # … with 336,770 more rows
```

Il risultato dell'unione delle compagnie aeree a flights2 è una variabile aggiuntiva: `name`. Questo è il motivo per cui chiamo questo tipo di join un join mutante. In questo caso, avreste potuto arrivare allo stesso punto usando `mutate()` e il subsetting di base di R:


```r
flights2 %>%
  select(-origin, -dest) %>% 
  mutate(name = airlines$name[match(carrier, airlines$carrier)])
#> # A tibble: 336,776 × 7
#>    year month   day  hour tailnum carrier name                  
#>   <int> <int> <int> <dbl> <chr>   <chr>   <chr>                 
#> 1  2013     1     1     5 N14228  UA      United Air Lines Inc. 
#> 2  2013     1     1     5 N24211  UA      United Air Lines Inc. 
#> 3  2013     1     1     5 N619AA  AA      American Airlines Inc.
#> 4  2013     1     1     5 N804JB  B6      JetBlue Airways       
#> 5  2013     1     1     6 N668DN  DL      Delta Air Lines Inc.  
#> 6  2013     1     1     5 N39463  UA      United Air Lines Inc. 
#> # … with 336,770 more rows
```
…
### Definizione delle colonne chiave {#join-by}

Finora, le coppie di tabelle sono sempre state unite da una singola variabile, e questa variabile ha lo stesso nome in entrambe le tabelle. Questo vincolo è stato codificato da `by = "key"`. Puoi usare altri valori per `by` per collegare le tabelle in altri modi:

  * Il valore predefinito, `by = NULL`, usa tutte le variabili che appaiono in entrambe le tabelle, il cosiddetto __natural__ join. Per esempio, le tabelle dei voli e del meteo corrispondono sulle loro variabili comuni: `year`, `month`, `day`, `hour` e `origin`.

    
    ```r
    flights2 %>% 
      left_join(weather)
    #> Joining, by = c("year", "month", "day", "hour", "origin")
    #> # A tibble: 336,776 × 18
    #>    year month   day  hour origin dest  tailnum carrier  temp  dewp humid
    #>   <int> <int> <int> <dbl> <chr>  <chr> <chr>   <chr>   <dbl> <dbl> <dbl>
    #> 1  2013     1     1     5 EWR    IAH   N14228  UA       39.0  28.0  64.4
    #> 2  2013     1     1     5 LGA    IAH   N24211  UA       39.9  25.0  54.8
    #> 3  2013     1     1     5 JFK    MIA   N619AA  AA       39.0  27.0  61.6
    #> 4  2013     1     1     5 JFK    BQN   N804JB  B6       39.0  27.0  61.6
    #> 5  2013     1     1     6 LGA    ATL   N668DN  DL       39.9  25.0  54.8
    #> 6  2013     1     1     5 EWR    ORD   N39463  UA       39.0  28.0  64.4
    #> # … with 336,770 more rows, and 7 more variables: wind_dir <dbl>,
    #> #   wind_speed <dbl>, wind_gust <dbl>, precip <dbl>, pressure <dbl>,
    #> #   visib <dbl>, time_hour <dttm>
    ```

  * Un vettore di caratteri, `by = "x"`. Questo è come un join naturale, ma usa solo
    alcune delle variabili comuni. Per esempio, `flights` e `planes` hanno
    variabili `year`, ma significano cose diverse, quindi vogliamo unire solo per
    `tailnum`.

    
    ```r
    flights2 %>% 
      left_join(planes, by = "tailnum")
    #> # A tibble: 336,776 × 16
    #>   year.x month   day  hour origin dest  tailnum carrier year.y type             
    #>    <int> <int> <int> <dbl> <chr>  <chr> <chr>   <chr>    <int> <chr>            
    #> 1   2013     1     1     5 EWR    IAH   N14228  UA        1999 Fixed wing multi…
    #> 2   2013     1     1     5 LGA    IAH   N24211  UA        1998 Fixed wing multi…
    #> 3   2013     1     1     5 JFK    MIA   N619AA  AA        1990 Fixed wing multi…
    #> 4   2013     1     1     5 JFK    BQN   N804JB  B6        2012 Fixed wing multi…
    #> 5   2013     1     1     6 LGA    ATL   N668DN  DL        1991 Fixed wing multi…
    #> 6   2013     1     1     5 EWR    ORD   N39463  UA        2012 Fixed wing multi…
    #> # … with 336,770 more rows, and 6 more variables: manufacturer <chr>,
    #> #   model <chr>, engines <int>, seats <int>, speed <int>, engine <chr>
    ```
…
  * Un vettore di caratteri con nome: `by = c("a" = "b")`. Questo
    corrisponde alla variabile `a` nella tabella `x` alla variabile `b` nella tabella `y`. Le
    variabili da `x` saranno usate nell'output.

    Per esempio, se vogliamo disegnare una mappa abbiamo bisogno di combinare i dati dei voli
    con i dati degli aeroporti che contengono la posizione (`lat` e `lon`) di
    ogni aeroporto. Ogni volo ha un `airport` di origine e uno di destinazione, quindi
    bisogno di specificare a quale vogliamo unire i dati:

    
    ```r
    flights2 %>% 
      left_join(airports, c("dest" = "faa"))
    #> # A tibble: 336,776 × 15
    #>    year month   day  hour origin dest  tailnum carrier name      lat   lon   alt
    #>   <int> <int> <int> <dbl> <chr>  <chr> <chr>   <chr>   <chr>   <dbl> <dbl> <dbl>
    #> 1  2013     1     1     5 EWR    IAH   N14228  UA      George…  30.0 -95.3    97
    #> 2  2013     1     1     5 LGA    IAH   N24211  UA      George…  30.0 -95.3    97
    #> 3  2013     1     1     5 JFK    MIA   N619AA  AA      Miami …  25.8 -80.3     8
    #> 4  2013     1     1     5 JFK    BQN   N804JB  B6      <NA>     NA    NA      NA
    #> 5  2013     1     1     6 LGA    ATL   N668DN  DL      Hartsf…  33.6 -84.4  1026
    #> 6  2013     1     1     5 EWR    ORD   N39463  UA      Chicag…  42.0 -87.9   668
    #> # … with 336,770 more rows, and 3 more variables: tz <dbl>, dst <chr>,
    #> #   tzone <chr>
    
    flights2 %>% 
      left_join(airports, c("origin" = "faa"))
    #> # A tibble: 336,776 × 15
    #>    year month   day  hour origin dest  tailnum carrier name      lat   lon   alt
    #>   <int> <int> <int> <dbl> <chr>  <chr> <chr>   <chr>   <chr>   <dbl> <dbl> <dbl>
    #> 1  2013     1     1     5 EWR    IAH   N14228  UA      Newark…  40.7 -74.2    18
    #> 2  2013     1     1     5 LGA    IAH   N24211  UA      La Gua…  40.8 -73.9    22
    #> 3  2013     1     1     5 JFK    MIA   N619AA  AA      John F…  40.6 -73.8    13
    #> 4  2013     1     1     5 JFK    BQN   N804JB  B6      John F…  40.6 -73.8    13
    #> 5  2013     1     1     6 LGA    ATL   N668DN  DL      La Gua…  40.8 -73.9    22
    #> 6  2013     1     1     5 EWR    ORD   N39463  UA      Newark…  40.7 -74.2    18
    #> # … with 336,770 more rows, and 3 more variables: tz <dbl>, dst <chr>,
    #> #   tzone <chr>
    ```
…
Le filtering joins fanno corrispondere le osservazioni allo stesso modo delle mutating joins, ma influenzano le osservazioni, non le variabili. Ne esistono due tipi:

* `semi_join(x, y)` __tiene__ tutte le osservazioni in `x` che hanno una corrispondenza in `y`.
* `anti_join(x, y)` __drops__ tutte le osservazioni in `x` che hanno una corrispondenza in `y`.

Le semi-join sono utili per far corrispondere tabelle di riepilogo filtrate alle righe originali. Per esempio, immaginate di aver trovato le prime dieci destinazioni più popolari:



```r
top_dest <- flights %>%
  count(dest, sort = TRUE) %>%
  head(10)
top_dest
#> # A tibble: 10 × 2
#>   dest      n
#>   <chr> <int>
#> 1 ORD   17283
#> 2 ATL   17215
#> 3 LAX   16174
#> 4 BOS   15508
#> 5 MCO   14082
#> 6 CLT   14064
#> # … with 4 more rows
```

Ora vuoi trovare ogni volo che è andato a una di queste destinazioni. Potresti costruire tu stesso un filtro:


```r
flights %>% 
  filter(dest %in% top_dest$dest)
#> # A tibble: 141,145 × 19
#>    year month   day dep_time sched_dep_time dep_delay arr_time sched_arr_time
#>   <int> <int> <int>    <int>          <int>     <dbl>    <int>          <int>
#> 1  2013     1     1      542            540         2      923            850
#> 2  2013     1     1      554            600        -6      812            837
#> 3  2013     1     1      554            558        -4      740            728
#> 4  2013     1     1      555            600        -5      913            854
#> 5  2013     1     1      557            600        -3      838            846
#> 6  2013     1     1      558            600        -2      753            745
#> # … with 141,139 more rows, and 11 more variables: arr_delay <dbl>,
#> #   carrier <chr>, flight <int>, tailnum <chr>, origin <chr>, dest <chr>,
#> #   air_time <dbl>, distance <dbl>, hour <dbl>, minute <dbl>, time_hour <dttm>
```

Ma è difficile estendere questo approccio a più variabili. Per esempio, immagina di aver trovato i 10 giorni con i più alti ritardi medi. Come costruireste la dichiarazione del filtro che usa `year`, `month` e `day` per abbinarlo a `flight`?

Invece puoi usare una semi-join, che collega le due tabelle come una mutating join, ma invece di aggiungere nuove colonne, mantiene solo le righe in `x` che hanno una corrispondenza in `y`:


```r
flights %>% 
  semi_join(top_dest)
#> Joining, by = "dest"
#> # A tibble: 141,145 × 19
#>    year month   day dep_time sched_dep_time dep_delay arr_time sched_arr_time
#>   <int> <int> <int>    <int>          <int>     <dbl>    <int>          <int>
#> 1  2013     1     1      542            540         2      923            850
#> 2  2013     1     1      554            600        -6      812            837
#> 3  2013     1     1      554            558        -4      740            728
#> 4  2013     1     1      555            600        -5      913            854
#> 5  2013     1     1      557            600        -3      838            846
#> 6  2013     1     1      558            600        -2      753            745
#> # … with 141,139 more rows, and 11 more variables: arr_delay <dbl>,
#> #   carrier <chr>, flight <int>, tailnum <chr>, origin <chr>, dest <chr>,
#> #   air_time <dbl>, distance <dbl>, hour <dbl>, minute <dbl>, time_hour <dttm>
```
…
<img src="diagrams/join-semi-many.png" width="312" style="display: block; margin: auto;" />

L'inverso di una semi-join è un anti-join. Un anti-join mantiene le righe che _non_ hanno una corrispondenza:

<img src="diagrams/join-anti.png" width="307" style="display: block; margin: auto;" />

Gli anti-join sono utili per diagnosticare le mancate corrispondenze. Per esempio, quando si collegano `flights` e `planes`, si potrebbe essere interessati a sapere che ci sono molti `flights` che non hanno una corrispondenza in `planes`:


```r
flights %>%
  anti_join(planes, by = "tailnum") %>%
  count(tailnum, sort = TRUE)
#> # A tibble: 722 × 2
#>   tailnum     n
#>   <chr>   <int>
#> 1 <NA>     2512
#> 2 N725MQ    575
#> 3 N722MQ    513
#> 4 N723MQ    507
#> 5 N713MQ    483
#> 6 N735MQ    396
#> # … with 716 more rows
```
…
