10 Tibble | R for Data Science - edizione italiana
…
Se questo capitolo vi lascia la voglia di imparare di più sulle tibbie, potreste godervi la vignette("tibble").

10.1.1 Prerequisiti

In questo capitolo esploreremo il pacchetto tibble, parte del core tidyverse.

library(tidyverse)

10.2 Creare una tibble

Quasi tutte le funzioni che userete in questo libro producono tibble, poiché le tibble sono una delle caratteristiche unificanti del tidyverse. La maggior parte degli altri pacchetti di R usa normali data frame, quindi potreste voler forzare un data frame in una tibble. Potete farlo con as_tibble():

as_tibble(iris)
#> # A tibble: 150 × 5
#>   Sepal.Length Sepal.Width Petal.Length Petal.Width Species
#>          <dbl>       <dbl>        <dbl>       <dbl> <fct>  
#> 1          5.1         3.5          1.4         0.2 setosa 
#> 2          4.9         3            1.4         0.2 setosa 
#> 3          4.7         3.2          1.3         0.2 setosa 
#> 4          4.6         3.1          1.5         0.2 setosa 
#> 5          5           3.6          1.4         0.2 setosa 
#> 6          5.4         3.9          1.7         0.4 setosa 
#> # … with 144 more rows
…
Ci sono due differenze principali nell’uso di un tibble rispetto a un classico data.frame: stampa e sottoinsieme.

10.3.1 Stampa

Le tibble hanno un metodo di stampa raffinato che mostra solo le prime 10 righe e tutte le colonne che si adattano allo schermo. Questo rende molto più facile lavorare con grandi quantità di dati. Oltre al suo nome, ogni colonna riporta il suo tipo, una bella caratteristica presa in prestito da str():

tibble(
  a = lubridate::now() + runif(1e3) * 86400,
  b = lubridate::today() + runif(1e3) * 30,
  c = 1:1e3,
  d = runif(1e3),
  e = sample(letters, 1e3, replace = TRUE)
)
#> # A tibble: 1,000 × 5
#>   a                   b              c     d e    
#>   <dttm>              <date>     <int> <dbl> <chr>
#> 1 2023-02-18 01:14:29 2023-02-24     1 0.368 n    
#> 2 2023-02-18 19:19:38 2023-03-01     2 0.612 l    
#> 3 2023-02-18 13:43:18 2023-03-11     3 0.415 p    
#> 4 2023-02-18 03:04:35 2023-03-10     4 0.212 m    
#> 5 2023-02-17 23:28:51 2023-03-07     5 0.733 i    
#> 6 2023-02-18 10:29:48 2023-03-03     6 0.460 n    
#> # … with 994 more rows
…
