…
In questo capitolo esploreremo il pacchetto __tibble__, parte del core tidyverse.


```r
library(tidyverse)
```

## Creare una tibble

Quasi tutte le funzioni che userete in questo libro producono tibble, poiché le tibble sono una delle caratteristiche unificanti del tidyverse. La maggior parte degli altri pacchetti di R usa normali data frame, quindi potreste voler forzare un data frame in una tibble. Potete farlo con `as_tibble()`:


```r
as_tibble(iris)
#> # A tibble: 150 × 5
#>   Sepal.Length Sepal.Width Petal.Length Petal.Width Species
#>          <dbl>       <dbl>        <dbl>       <dbl> <fct>  
#> 1          5.1         3.5          1.4         0.2 setosa 
#> 2          4.9         3            1.4         0.2 setosa 
#> 3          4.7         3.2          1.3         0.2 setosa 
#> 4          4.6         3.1          1.5         0.2 setosa 
#> 5          5           3.6          1.4         0.2 setosa 
#> 6          5.4         3.9          1.7         0.4 setosa 
#> # … with 144 more rows
```
…
### Stampa

Le tibble hanno un metodo di stampa raffinato che mostra solo le prime 10 righe e tutte le colonne che si adattano allo schermo. Questo rende molto più facile lavorare con grandi quantità di dati. Oltre al suo nome, ogni colonna riporta il suo tipo, una bella caratteristica presa in prestito da `str()`:


```r
tibble(
  a = lubridate::now() + runif(1e3) * 86400,
  b = lubridate::today() + runif(1e3) * 30,
  c = 1:1e3,
  d = runif(1e3),
  e = sample(letters, 1e3, replace = TRUE)
)
#> # A tibble: 1,000 × 5
#>   a                   b              c     d e    
#>   <dttm>              <date>     <int> <dbl> <chr>
#> 1 2022-06-21 23:28:11 2022-06-28     1 0.368 n    
#> 2 2022-06-22 17:33:21 2022-07-03     2 0.612 l    
#> 3 2022-06-22 11:57:00 2022-07-13     3 0.415 p    
#> 4 2022-06-22 01:18:17 2022-07-12     4 0.212 m    
#> 5 2022-06-21 21:42:34 2022-07-09     5 0.733 i    
#> 6 2022-06-22 08:43:31 2022-07-05     6 0.460 n    
#> # … with 994 more rows
```
…
