12 Tidy data | R for Data Science - edizione italiana
…
È possibile rappresentare gli stessi dati sottostanti in più modi. L’esempio qui sotto mostra gli stessi dati organizzati in quattro modi diversi. Ogni set di dati mostra gli stessi valori di quattro variabili paese, anno, popolazione, e casi, ma ogni set di dati organizza i valori in un modo diverso.

table1
#> # A tibble: 6 × 4
#>   country      year  cases population
#>   <chr>       <int>  <int>      <int>
#> 1 Afghanistan  1999    745   19987071
#> 2 Afghanistan  2000   2666   20595360
#> 3 Brazil       1999  37737  172006362
#> 4 Brazil       2000  80488  174504898
#> 5 China        1999 212258 1272915272
#> 6 China        2000 213766 1280428583
table2
#> # A tibble: 12 × 4
#>   country      year type           count
#>   <chr>       <int> <chr>          <int>
#> 1 Afghanistan  1999 cases            745
#> 2 Afghanistan  1999 population  19987071
#> 3 Afghanistan  2000 cases           2666
#> 4 Afghanistan  2000 population  20595360
#> 5 Brazil       1999 cases          37737
#> 6 Brazil       1999 population 172006362
#> # … with 6 more rows
…
12.3.2 Wider

pivot_wider() è l’opposto di pivot_longer(). Si usa quando un’osservazione è sparsa su più righe. Per esempio, prendete la table2: un’osservazione è un paese in un anno, ma ogni osservazione è sparsa su due righe.

table2
#> # A tibble: 12 × 4
#>   country      year type           count
#>   <chr>       <int> <chr>          <int>
#> 1 Afghanistan  1999 cases            745
#> 2 Afghanistan  1999 population  19987071
#> 3 Afghanistan  2000 cases           2666
#> 4 Afghanistan  2000 population  20595360
#> 5 Brazil       1999 cases          37737
#> 6 Brazil       1999 population 172006362
#> # … with 6 more rows
…
Un altro importante strumento per rendere espliciti i valori mancanti nei dati ordinati è complete():

stocks %>% 
  complete(year, qtr)
#> # A tibble: 8 × 3
#>    year   qtr return
#>   <dbl> <dbl>  <dbl>
#> 1  2015     1   1.88
#> 2  2015     2   0.59
#> 3  2015     3   0.35
#> 4  2015     4  NA   
#> 5  2016     1  NA   
#> 6  2016     2   0.92
#> # … with 2 more rows
…
12.5.1 Esercizi

Confrontate e contrapponete gli argomenti di fill a pivot_wider() e complete().

Cosa fa l’argomento direction di fill()?

12.6 Caso di studio

Per finire il capitolo, mettiamo insieme tutto quello che abbiamo imparato per affrontare un realistico problema di riordino dei dati. Il dataset tidyr::who contiene casi di tubercolosi (TB) suddivisi per anno, paese, età, sesso e metodo di diagnosi. I dati provengono dal 2014 World Health Organization Global Tuberculosis Report, disponibile su http://www.who.int/tb/country/data/download/en/.

C’è una ricchezza di informazioni epidemiologiche in questo set di dati, ma è impegnativo lavorare con i dati nella forma in cui sono forniti:

who
#> # A tibble: 7,240 × 60
#>   country   iso2  iso3   year new_sp_m014 new_sp_m1524 new_sp_m2534 new_sp_m3544
#>   <chr>     <chr> <chr> <int>       <int>        <int>        <int>        <int>
#> 1 Afghanis… AF    AFG    1980          NA           NA           NA           NA
#> 2 Afghanis… AF    AFG    1981          NA           NA           NA           NA
#> 3 Afghanis… AF    AFG    1982          NA           NA           NA           NA
#> 4 Afghanis… AF    AFG    1983          NA           NA           NA           NA
#> 5 Afghanis… AF    AFG    1984          NA           NA           NA           NA
#> 6 Afghanis… AF    AFG    1985          NA           NA           NA           NA
#> # … with 7,234 more rows, and 52 more variables: new_sp_m4554 <int>,
#> #   new_sp_m5564 <int>, new_sp_m65 <int>, new_sp_f014 <int>,
#> #   new_sp_f1524 <int>, new_sp_f2534 <int>, new_sp_f3544 <int>,
#> #   new_sp_f4554 <int>, new_sp_f5564 <int>, new_sp_f65 <int>,
#> #   new_sn_m014 <int>, new_sn_m1524 <int>, new_sn_m2534 <int>,
#> #   new_sn_m3544 <int>, new_sn_m4554 <int>, new_sn_m5564 <int>,
#> #   new_sn_m65 <int>, new_sn_f014 <int>, new_sn_f1524 <int>, …
…
Non sappiamo ancora quali siano tutte le altre colonne, ma data la struttura
nei nomi delle variabili (es. new_sp_m014, new_ep_m014, new_ep_f014)
è probabile che questi siano valori, non variabili.

Quindi abbiamo bisogno di raccogliere tutte le colonne da new_sp_m014 a newrel_f65. Non sappiamo ancora cosa rappresentano questi valori, quindi daremo loro il nome generico di "key". Sappiamo che le celle rappresentano il numero di casi, quindi useremo la variabile cases. Ci sono molti valori mancanti nella rappresentazione attuale, quindi per ora useremo values_drop_na solo per concentrarci sui valori che sono presenti.

who1 <- who %>% 
  pivot_longer(
    cols = new_sp_m014:newrel_f65, 
    names_to = "key", 
    values_to = "cases", 
    values_drop_na = TRUE
  )
who1
#> # A tibble: 76,046 × 6
#>   country     iso2  iso3   year key          cases
#>   <chr>       <chr> <chr> <int> <chr>        <int>
#> 1 Afghanistan AF    AFG    1997 new_sp_m014      0
#> 2 Afghanistan AF    AFG    1997 new_sp_m1524    10
#> 3 Afghanistan AF    AFG    1997 new_sp_m2534     6
#> 4 Afghanistan AF    AFG    1997 new_sp_m3544     3
#> 5 Afghanistan AF    AFG    1997 new_sp_m4554     5
#> 6 Afghanistan AF    AFG    1997 new_sp_m5564     2
#> # … with 76,040 more rows

Possiamo avere qualche indizio sulla struttura dei valori nella nuova colonna “key” contandoli:

who1 %>% 
  count(key)
#> # A tibble: 56 × 2
#>   key              n
#>   <chr>        <int>
#> 1 new_ep_f014   1032
#> 2 new_ep_f1524  1021
#> 3 new_ep_f2534  1021
#> 4 new_ep_f3544  1021
#> 5 new_ep_f4554  1017
#> 6 new_ep_f5564  1017
#> # … with 50 more rows
…
3544 = 35 – 44 anni

4554 = 45 – 54 anni

5564 = 55 – 64 anni

65 = 65 anni o più

Dobbiamo fare una piccola correzione al formato dei nomi delle colonne: sfortunatamente i nomi sono leggermente incoerenti perché invece di new_rel abbiamo newrel (è difficile da notare qui, ma se non lo correggi avremo degli errori nei passi successivi). Imparerai a conoscere str_replace() in [strings], ma l’idea di base è abbastanza semplice: sostituisci i caratteri “newrel” con “new_rel”. Questo rende coerenti tutti i nomi delle variabili.

who2 <- who1 %>% 
  mutate(key = stringr::str_replace(key, "newrel", "new_rel"))
who2
#> # A tibble: 76,046 × 6
#>   country     iso2  iso3   year key          cases
#>   <chr>       <chr> <chr> <int> <chr>        <int>
#> 1 Afghanistan AF    AFG    1997 new_sp_m014      0
#> 2 Afghanistan AF    AFG    1997 new_sp_m1524    10
#> 3 Afghanistan AF    AFG    1997 new_sp_m2534     6
#> 4 Afghanistan AF    AFG    1997 new_sp_m3544     3
#> 5 Afghanistan AF    AFG    1997 new_sp_m4554     5
#> 6 Afghanistan AF    AFG    1997 new_sp_m5564     2
#> # … with 76,040 more rows

Possiamo separare i valori in ogni codice con due passaggi di separate(). Il primo passaggio dividerà i codici ad ogni trattino basso.

who3 <- who2 %>% 
  separate(key, c("new", "type", "sexage"), sep = "_")
who3
#> # A tibble: 76,046 × 8
#>   country     iso2  iso3   year new   type  sexage cases
#>   <chr>       <chr> <chr> <int> <chr> <chr> <chr>  <int>
#> 1 Afghanistan AF    AFG    1997 new   sp    m014       0
#> 2 Afghanistan AF    AFG    1997 new   sp    m1524     10
#> 3 Afghanistan AF    AFG    1997 new   sp    m2534      6
#> 4 Afghanistan AF    AFG    1997 new   sp    m3544      3
#> 5 Afghanistan AF    AFG    1997 new   sp    m4554      5
#> 6 Afghanistan AF    AFG    1997 new   sp    m5564      2
#> # … with 76,040 more rows
…
who3 %>% 
  count(new)
#> # A tibble: 1 × 2
#>   new       n
#>   <chr> <int>
#> 1 new   76046
who4 <- who3 %>% 
  select(-new, -iso2, -iso3)

Poi separeremo sexage in sex e age dividendo dopo il primo carattere:

who5 <- who4 %>% 
  separate(sexage, c("sex", "age"), sep = 1)
who5
#> # A tibble: 76,046 × 6
#>   country      year type  sex   age   cases
#>   <chr>       <int> <chr> <chr> <chr> <int>
#> 1 Afghanistan  1997 sp    m     014       0
#> 2 Afghanistan  1997 sp    m     1524     10
#> 3 Afghanistan  1997 sp    m     2534      6
#> 4 Afghanistan  1997 sp    m     3544      3
#> 5 Afghanistan  1997 sp    m     4554      5
#> 6 Afghanistan  1997 sp    m     5564      2
#> # … with 76,040 more rows
…
