5 Trasformazione | R for Data Science - edizione italiana
…
5.1.1 Prerequisiti

In questo capitolo ci concentreremo su come utilizzare il pacchetto dplyr, un altro membro fondamentale del tidyverse. Illustreremo le idee chiave usando i dati del pacchetto nycflights13 e useremo ggplot2 per aiutarci a capire i dati.

library(nycflights13)
library(tidyverse)

Fai attenzione al messaggio di conflitto che viene stampato quando carichi il tidyverse. Ti dice che dplyr sovrascrive alcune funzioni in R base. Se vuoi usare la versione base di queste funzioni dopo aver caricato dplyr, dovrai usare i loro nomi completi: stats::filter() e stats::lag().

5.1.2 nycflights13

Per esplorare i verbi di base di manipolazione dei dati di dplyr, useremo nycflights13::flights. Questo data frame contiene tutti i voli 336,776 che sono partiti da New York City nel 2013. I dati provengono dall’US Bureau of Transportation Statistics, ed è documentato in ?flights.

flights
#> # A tibble: 336,776 × 19
#>    year month   day dep_time sched_dep…¹ dep_d…² arr_t…³ sched…⁴ arr_d…⁵ carrier
#>   <int> <int> <int>    <int>       <int>   <dbl>   <int>   <int>   <dbl> <chr>  
#> 1  2013     1     1      517         515       2     830     819      11 UA     
#> 2  2013     1     1      533         529       4     850     830      20 UA     
#> 3  2013     1     1      542         540       2     923     850      33 AA     
#> 4  2013     1     1      544         545      -1    1004    1022     -18 B6     
#> 5  2013     1     1      554         600      -6     812     837     -25 DL     
#> 6  2013     1     1      554         558      -4     740     728      12 UA     
#> # … with 336,770 more rows, 9 more variables: flight <int>, tailnum <chr>,
#> #   origin <chr>, dest <chr>, air_time <dbl>, distance <dbl>, hour <dbl>,
#> #   minute <dbl>, time_hour <dttm>, and abbreviated variable names
#> #   ¹​sched_dep_time, ²​dep_delay, ³​arr_time, ⁴​sched_arr_time, ⁵​arr_delay
…
Il primo argomento è un data frame.

Gli argomenti successivi descrivono cosa fare con il data frame,
usando i nomi delle variabili (senza virgolette).

Il risultato è un nuovo data frame.

Insieme queste proprietà rendono facile concatenare più passi semplici per ottenere un risultato complesso. Immergiamoci e vediamo come funzionano questi verbi.

5.2 Filtrare le righe con filter()

La funzione filter() permette di selezionare le osservazioni in base ai loro valori. Il primo argomento è il nome del data frame. Il secondo e i successivi argomenti sono le espressioni che filtrano il data frame. Per esempio, possiamo selezionare tutti i voli del 1° gennaio con:

filter(flights, month == 1, day == 1)
#> # A tibble: 842 × 19
#>    year month   day dep_time sched_dep…¹ dep_d…² arr_t…³ sched…⁴ arr_d…⁵ carrier
#>   <int> <int> <int>    <int>       <int>   <dbl>   <int>   <int>   <dbl> <chr>  
#> 1  2013     1     1      517         515       2     830     819      11 UA     
#> 2  2013     1     1      533         529       4     850     830      20 UA     
#> 3  2013     1     1      542         540       2     923     850      33 AA     
#> 4  2013     1     1      544         545      -1    1004    1022     -18 B6     
#> 5  2013     1     1      554         600      -6     812     837     -25 DL     
#> 6  2013     1     1      554         558      -4     740     728      12 UA     
#> # … with 836 more rows, 9 more variables: flight <int>, tailnum <chr>,
#> #   origin <chr>, dest <chr>, air_time <dbl>, distance <dbl>, hour <dbl>,
#> #   minute <dbl>, time_hour <dttm>, and abbreviated variable names
#> #   ¹​sched_dep_time, ²​dep_delay, ³​arr_time, ⁴​sched_arr_time, ⁵​arr_delay

Quando esegui quella linea di codice, dplyr esegue l’operazione di filtraggio e restituisce un nuovo data frame. Le funzioni dplyr non modificano mai i loro input, quindi se vuoi salvare il risultato, dovrai usare l’operatore di assegnazione, <-:

jan1 <- filter(flights, month == 1, day == 1)

R stampa i risultati o li salva in una variabile. Se volete fare entrambe le cose, potete avvolgere l’assegnazione tra parentesi:

(dec25 <- filter(flights, month == 12, day == 25))
#> # A tibble: 719 × 19
#>    year month   day dep_time sched_dep…¹ dep_d…² arr_t…³ sched…⁴ arr_d…⁵ carrier
#>   <int> <int> <int>    <int>       <int>   <dbl>   <int>   <int>   <dbl> <chr>  
#> 1  2013    12    25      456         500      -4     649     651      -2 US     
#> 2  2013    12    25      524         515       9     805     814      -9 UA     
#> 3  2013    12    25      542         540       2     832     850     -18 AA     
#> 4  2013    12    25      546         550      -4    1022    1027      -5 B6     
#> 5  2013    12    25      556         600      -4     730     745     -15 AA     
#> 6  2013    12    25      557         600      -3     743     752      -9 DL     
#> # … with 713 more rows, 9 more variables: flight <int>, tailnum <chr>,
#> #   origin <chr>, dest <chr>, air_time <dbl>, distance <dbl>, hour <dbl>,
#> #   minute <dbl>, time_hour <dttm>, and abbreviated variable names
#> #   ¹​sched_dep_time, ²​dep_delay, ³​arr_time, ⁴​sched_arr_time, ⁵​arr_delay
…
Quanti voli hanno un dep_time mancante? Quali altre variabili sono
mancanti? Cosa potrebbero rappresentare queste righe?

Perché la variabile NA ^ 0 non è mancante? 2. Perché NA | TRUE non è mancante?

Perché FALSE & NA non è mancante? Puoi capire la
regola generale? (NA * 0 è un controesempio insidioso!)

5.3 Organizzare le righe con arrange()

Arrange()funziona in modo simile afilter()` tranne che invece di selezionare le righe, cambia il loro ordine. Prende un frame di dati e un insieme di nomi di colonne (o espressioni più complicate) da ordinare. Se fornite più di un nome di colonna, ogni colonna aggiuntiva sarà usata per rompere i legami nei valori delle colonne precedenti:

arrange(flights, year, month, day)
#> # A tibble: 336,776 × 19
#>    year month   day dep_time sched_dep…¹ dep_d…² arr_t…³ sched…⁴ arr_d…⁵ carrier
#>   <int> <int> <int>    <int>       <int>   <dbl>   <int>   <int>   <dbl> <chr>  
#> 1  2013     1     1      517         515       2     830     819      11 UA     
#> 2  2013     1     1      533         529       4     850     830      20 UA     
#> 3  2013     1     1      542         540       2     923     850      33 AA     
#> 4  2013     1     1      544         545      -1    1004    1022     -18 B6     
#> 5  2013     1     1      554         600      -6     812     837     -25 DL     
#> 6  2013     1     1      554         558      -4     740     728      12 UA     
#> # … with 336,770 more rows, 9 more variables: flight <int>, tailnum <chr>,
#> #   origin <chr>, dest <chr>, air_time <dbl>, distance <dbl>, hour <dbl>,
#> #   minute <dbl>, time_hour <dttm>, and abbreviated variable names
#> #   ¹​sched_dep_time, ²​dep_delay, ³​arr_time, ⁴​sched_arr_time, ⁵​arr_delay

Usa desc() per riordinare una colonna in ordine decrescente:

arrange(flights, desc(dep_delay))
#> # A tibble: 336,776 × 19
#>    year month   day dep_time sched_dep…¹ dep_d…² arr_t…³ sched…⁴ arr_d…⁵ carrier
#>   <int> <int> <int>    <int>       <int>   <dbl>   <int>   <int>   <dbl> <chr>  
#> 1  2013     1     9      641         900    1301    1242    1530    1272 HA     
#> 2  2013     6    15     1432        1935    1137    1607    2120    1127 MQ     
#> 3  2013     1    10     1121        1635    1126    1239    1810    1109 MQ     
#> 4  2013     9    20     1139        1845    1014    1457    2210    1007 AA     
#> 5  2013     7    22      845        1600    1005    1044    1815     989 MQ     
#> 6  2013     4    10     1100        1900     960    1342    2211     931 DL     
#> # … with 336,770 more rows, 9 more variables: flight <int>, tailnum <chr>,
#> #   origin <chr>, dest <chr>, air_time <dbl>, distance <dbl>, hour <dbl>,
#> #   minute <dbl>, time_hour <dttm>, and abbreviated variable names
#> #   ¹​sched_dep_time, ²​dep_delay, ³​arr_time, ⁴​sched_arr_time, ⁵​arr_delay
…
Ordina i voli per trovare i voli più veloci.

Quali voli hanno viaggiato più lontano? Quali hanno viaggiato più brevemente?

5.4 Seleziona le colonne con select()

Non è raro avere serie di dati con centinaia o addirittura migliaia di variabili. In questo caso, la prima sfida è spesso quella di restringere le variabili a cui si è effettivamente interessati. La funzione select() permette di zoomare rapidamente su un sottoinsieme utile usando operazioni basate sui nomi delle variabili.

La funzione select() non è estremamente utile con i dati dei voli perché abbiamo solo 19 variabili, ma potete comunque farvi un’idea generale:

# Seleziona le colonne per nome
select(flights, year, month, day)
#> # A tibble: 336,776 × 3
#>    year month   day
#>   <int> <int> <int>
#> 1  2013     1     1
#> 2  2013     1     1
#> 3  2013     1     1
#> 4  2013     1     1
#> 5  2013     1     1
#> 6  2013     1     1
#> # … with 336,770 more rows
# Seleziona tutte le colonne tra l'anno e il giorno (incluso)
select(flights, year:day)
#> # A tibble: 336,776 × 3
#>    year month   day
#>   <int> <int> <int>
#> 1  2013     1     1
#> 2  2013     1     1
#> 3  2013     1     1
#> 4  2013     1     1
#> 5  2013     1     1
#> 6  2013     1     1
#> # … with 336,770 more rows
# Seleziona tutte le colonne tranne quelle dall'anno al giorno (incluso)
select(flights, -(year:day))
#> # A tibble: 336,776 × 16
#>   dep_time sched…¹ dep_d…² arr_t…³ sched…⁴ arr_d…⁵ carrier flight tailnum origin
#>      <int>   <int>   <dbl>   <int>   <int>   <dbl> <chr>    <int> <chr>   <chr> 
#> 1      517     515       2     830     819      11 UA        1545 N14228  EWR   
#> 2      533     529       4     850     830      20 UA        1714 N24211  LGA   
#> 3      542     540       2     923     850      33 AA        1141 N619AA  JFK   
#> 4      544     545      -1    1004    1022     -18 B6         725 N804JB  JFK   
#> 5      554     600      -6     812     837     -25 DL         461 N668DN  LGA   
#> 6      554     558      -4     740     728      12 UA        1696 N39463  EWR   
#> # … with 336,770 more rows, 6 more variables: dest <chr>, air_time <dbl>,
#> #   distance <dbl>, hour <dbl>, minute <dbl>, time_hour <dttm>, and abbreviated
#> #   variable names ¹​sched_dep_time, ²​dep_delay, ³​arr_time, ⁴​sched_arr_time,
#> #   ⁵​arr_delay
…
contains("ijk"): corrisponde ai nomi che contengono “ijk”.

matches("(.)\1"): seleziona le variabili che corrispondono a un’espressione regolare.
Questo corrisponde a tutte le variabili che contengono caratteri ripetuti. Imparerete
imparerete di più sulle espressioni regolari in stringhe.

num_range("x", 1:3): corrisponde a x1, x2 e x3.

Vedi ?select per maggiori dettagli.

select() può essere usato per rinominare le variabili, ma è raramente utile perché elimina tutte le variabili non esplicitamente menzionate. Usate invece rename(), che è una variante di select() che mantiene tutte le variabili che non sono esplicitamente menzionate:

rename(flights, tail_num = tailnum)
#> # A tibble: 336,776 × 19
#>    year month   day dep_time sched_dep…¹ dep_d…² arr_t…³ sched…⁴ arr_d…⁵ carrier
#>   <int> <int> <int>    <int>       <int>   <dbl>   <int>   <int>   <dbl> <chr>  
#> 1  2013     1     1      517         515       2     830     819      11 UA     
#> 2  2013     1     1      533         529       4     850     830      20 UA     
#> 3  2013     1     1      542         540       2     923     850      33 AA     
#> 4  2013     1     1      544         545      -1    1004    1022     -18 B6     
#> 5  2013     1     1      554         600      -6     812     837     -25 DL     
#> 6  2013     1     1      554         558      -4     740     728      12 UA     
#> # … with 336,770 more rows, 9 more variables: flight <int>, tail_num <chr>,
#> #   origin <chr>, dest <chr>, air_time <dbl>, distance <dbl>, hour <dbl>,
#> #   minute <dbl>, time_hour <dttm>, and abbreviated variable names
#> #   ¹​sched_dep_time, ²​dep_delay, ³​arr_time, ⁴​sched_arr_time, ⁵​arr_delay

Un’altra opzione è quella di usare select() insieme all’helper everything(). Questo è utile se hai una manciata di variabili che vorresti spostare all’inizio del data frame.

select(flights, time_hour, air_time, everything())
#> # A tibble: 336,776 × 19
#>   time_hour           air_time  year month   day dep_t…¹ sched…² dep_d…³ arr_t…⁴
#>   <dttm>                 <dbl> <int> <int> <int>   <int>   <int>   <dbl>   <int>
#> 1 2013-01-01 05:00:00      227  2013     1     1     517     515       2     830
#> 2 2013-01-01 05:00:00      227  2013     1     1     533     529       4     850
#> 3 2013-01-01 05:00:00      160  2013     1     1     542     540       2     923
#> 4 2013-01-01 05:00:00      183  2013     1     1     544     545      -1    1004
#> 5 2013-01-01 06:00:00      116  2013     1     1     554     600      -6     812
#> 6 2013-01-01 05:00:00      150  2013     1     1     554     558      -4     740
#> # … with 336,770 more rows, 10 more variables: sched_arr_time <int>,
#> #   arr_delay <dbl>, carrier <chr>, flight <int>, tailnum <chr>, origin <chr>,
#> #   dest <chr>, distance <dbl>, hour <dbl>, minute <dbl>, and abbreviated
#> #   variable names ¹​dep_time, ²​sched_dep_time, ³​dep_delay, ⁴​arr_time
…
Oltre a selezionare insiemi di colonne esistenti, è spesso utile aggiungere nuove colonne che sono funzioni di colonne esistenti. Questo è il compito di mutate().

La funzione mutate() aggiunge sempre nuove colonne alla fine del vostro dataset, quindi inizieremo creando un dataset più piccolo in modo da poter vedere le nuove variabili. Ricordate che quando siete in RStudio, il modo più semplice per vedere tutte le colonne è View().

flights_sml <- select(flights, 
  year:day, 
  ends_with("delay"), 
  distance, 
  air_time
)
mutate(flights_sml,
  gain = dep_delay - arr_delay,
  speed = distance / air_time * 60
)
#> # A tibble: 336,776 × 9
#>    year month   day dep_delay arr_delay distance air_time  gain speed
#>   <int> <int> <int>     <dbl>     <dbl>    <dbl>    <dbl> <dbl> <dbl>
#> 1  2013     1     1         2        11     1400      227    -9  370.
#> 2  2013     1     1         4        20     1416      227   -16  374.
#> 3  2013     1     1         2        33     1089      160   -31  408.
#> 4  2013     1     1        -1       -18     1576      183    17  517.
#> 5  2013     1     1        -6       -25      762      116    19  394.
#> 6  2013     1     1        -4        12      719      150   -16  288.
#> # … with 336,770 more rows

Nota che puoi fare riferimento alle colonne che hai appena creato:

mutate(flights_sml,
  gain = dep_delay - arr_delay,
  hours = air_time / 60,
  gain_per_hour = gain / hours
)
#> # A tibble: 336,776 × 10
#>    year month   day dep_delay arr_delay distance air_time  gain hours gain_per…¹
#>   <int> <int> <int>     <dbl>     <dbl>    <dbl>    <dbl> <dbl> <dbl>      <dbl>
#> 1  2013     1     1         2        11     1400      227    -9  3.78      -2.38
#> 2  2013     1     1         4        20     1416      227   -16  3.78      -4.23
#> 3  2013     1     1         2        33     1089      160   -31  2.67     -11.6 
#> 4  2013     1     1        -1       -18     1576      183    17  3.05       5.57
#> 5  2013     1     1        -6       -25      762      116    19  1.93       9.83
#> 6  2013     1     1        -4        12      719      150   -16  2.5       -6.4 
#> # … with 336,770 more rows, and abbreviated variable name ¹​gain_per_hour

Se volete mantenere solo le nuove variabili, usate transmute():

transmute(flights,
  gain = dep_delay - arr_delay,
  hours = air_time / 60,
  gain_per_hour = gain / hours
)
#> # A tibble: 336,776 × 3
#>    gain hours gain_per_hour
#>   <dbl> <dbl>         <dbl>
#> 1    -9  3.78         -2.38
#> 2   -16  3.78         -4.23
#> 3   -31  2.67        -11.6 
#> 4    17  3.05          5.57
#> 5    19  1.93          9.83
#> 6   -16  2.5          -6.4 
#> # … with 336,770 more rows
…
Aritmetica modulare: %/% (divisione intera) e %% (resto), dove
x == y * (x %/% y) + (x %% y). L’aritmetica modulare è uno strumento utile perché
ti permette di spezzare gli interi in pezzi. Per esempio, nel set di dati
voli, puoi calcolare ora e minuto da dep_time con:

transmute(flights,
  dep_time,
  hour = dep_time %/% 100,
  minute = dep_time %% 100
)
#> # A tibble: 336,776 × 3
#>   dep_time  hour minute
#>      <int> <dbl>  <dbl>
#> 1      517     5     17
#> 2      533     5     33
#> 3      542     5     42
#> 4      544     5     44
#> 5      554     5     54
#> 6      554     5     54
#> # … with 336,770 more rows
…
summarise(flights, delay = mean(dep_delay, na.rm = TRUE))
#> # A tibble: 1 × 1
#>   delay
#>   <dbl>
#> 1  12.6

(Torneremo a breve sul significato di quel na.rm = TRUE).

La funzione summarise() non è estremamente utile a meno che non la accoppiamo con la funzione group_by(). Questo cambia l’unità di analisi dall’intero set di dati ai singoli gruppi. Quindi, quando usate i verbi di dplyr su un data frame raggruppato, essi saranno automaticamente applicati “per gruppo”. Per esempio, se applicassimo esattamente lo stesso codice a un data frame raggruppato per data, otterremmo il ritardo medio per data:

by_day <- group_by(flights, year, month, day)
summarise(by_day, delay = mean(dep_delay, na.rm = TRUE))
#> `summarise()` has grouped output by 'year', 'month'. You can override using the
#> `.groups` argument.
#> # A tibble: 365 × 4
#> # Groups:   year, month [12]
#>    year month   day delay
#>   <int> <int> <int> <dbl>
#> 1  2013     1     1 11.5 
#> 2  2013     1     2 13.9 
#> 3  2013     1     3 11.0 
#> 4  2013     1     4  8.95
#> 5  2013     1     5  5.73
#> 6  2013     1     6  7.15
#> # … with 359 more rows
…
Dietro le quinte, x %>% f(y) si trasforma in f(x, y), e x %>% f(y) %>% g(z) si trasforma in g(f(x, y), z) e così via. Puoi usare la pipe per riscrivere operazioni multiple in modo da poterle leggere da sinistra a destra, dall’alto in basso. Useremo spesso la pipe d’ora in poi perché migliora considerevolmente la leggibilità del codice, e torneremo su di esso in modo più dettagliato in pipe.

Lavorare con la pipe è uno dei criteri chiave per appartenere al tidyverse. L’unica eccezione è ggplot2: è stato scritto prima che la pipe fosse scoperta. Sfortunatamente, la prossima iterazione di ggplot2, ggvis, che usa la pipe, non è ancora pronta per il prime time.

5.6.2 Valori mancanti

Vi sarete chiesti quale sia l’argomento na.rm che abbiamo usato sopra. Cosa succede se non lo impostiamo?

flights %>% 
  group_by(year, month, day) %>% 
  summarise(mean = mean(dep_delay))
#> `summarise()` has grouped output by 'year', 'month'. You can override using the
#> `.groups` argument.
#> # A tibble: 365 × 4
#> # Groups:   year, month [12]
#>    year month   day  mean
#>   <int> <int> <int> <dbl>
#> 1  2013     1     1    NA
#> 2  2013     1     2    NA
#> 3  2013     1     3    NA
#> 4  2013     1     4    NA
#> 5  2013     1     5    NA
#> 6  2013     1     6    NA
#> # … with 359 more rows

Abbiamo un sacco di valori mancanti! Questo perché le funzioni di aggregazione obbediscono alla solita regola dei valori mancanti: se c’è un qualsiasi valore mancante nell’input, l’output sarà un valore mancante. Fortunatamente, tutte le funzioni di aggregazione hanno un argomento na.rm che rimuove i valori mancanti prima del calcolo:

flights %>% 
  group_by(year, month, day) %>% 
  summarise(mean = mean(dep_delay, na.rm = TRUE))
#> `summarise()` has grouped output by 'year', 'month'. You can override using the
#> `.groups` argument.
#> # A tibble: 365 × 4
#> # Groups:   year, month [12]
#>    year month   day  mean
#>   <int> <int> <int> <dbl>
#> 1  2013     1     1 11.5 
#> 2  2013     1     2 13.9 
#> 3  2013     1     3 11.0 
#> 4  2013     1     4  8.95
#> 5  2013     1     5  5.73
#> 6  2013     1     6  7.15
#> # … with 359 more rows
…
