3 Visualizzazione | R for Data Science - edizione italiana
…
È necessario installare un pacchetto solo una volta, ma è necessario ricaricarlo ogni volta che si avvia una nuova sessione.

Se abbiamo bisogno di essere espliciti sulla provenienza di una funzione (o di un set di dati), useremo la forma speciale package::function(). Per esempio, ggplot2::ggplot() dice esplicitamente che stiamo usando la funzione ggplot() del pacchetto ggplot2.

3.2 Primi passi

Usiamo il nostro primo grafico per rispondere ad una domanda: Le auto con grandi motori usano più carburante delle auto con piccoli motori? Probabilmente avete già una risposta, ma cercate di rendere la vostra risposta precisa. Com’è la relazione tra la dimensione del motore e l’efficienza del carburante? È positiva? Negativa? Lineare? Non lineare?

3.2.1 Il data frame mpg

Puoi testare la tua risposta con il data frame di mpg che si trova in ggplot2 (cioè ggplot2::mpg). Un data frame è una collezione rettangolare di variabili (nelle colonne) e osservazioni (nelle righe). mpg contiene osservazioni raccolte dalla US Environmental Protection Agency su 38 modelli di auto.

mpg
#> # A tibble: 234 × 11
#>   manufacturer model displ  year   cyl trans      drv     cty   hwy fl    class 
#>   <chr>        <chr> <dbl> <int> <int> <chr>      <chr> <int> <int> <chr> <chr> 
#> 1 audi         a4      1.8  1999     4 auto(l5)   f        18    29 p     compa…
#> 2 audi         a4      1.8  1999     4 manual(m5) f        21    29 p     compa…
#> 3 audi         a4      2    2008     4 manual(m6) f        20    31 p     compa…
#> 4 audi         a4      2    2008     4 auto(av)   f        21    30 p     compa…
#> 5 audi         a4      2.8  1999     6 auto(l5)   f        16    26 p     compa…
#> 6 audi         a4      2.8  1999     6 manual(m5) f        18    26 p     compa…
#> # … with 228 more rows
…
